C:\Users\Karolina\git12\Kamil_C3\src\main\java\calculator\CountDzieloNetto.java
C:\Users\Karolina\git12\Kamil_C3\src\main\java\calculator\CountZlecenieNetto.java
C:\Users\Karolina\git12\Kamil_C3\src\main\java\servlets\ZlecenieServlet.java
C:\Users\Karolina\git12\Kamil_C3\src\main\java\calculator\CountPracaNetto.java
C:\Users\Karolina\git12\Kamil_C3\src\main\java\calculator\CountZlecenieBrutto.java
C:\Users\Karolina\git12\Kamil_C3\src\main\java\calculator\CountPracaBrutto.java
C:\Users\Karolina\git12\Kamil_C3\src\main\java\servlets\FirstFormServlet.java
C:\Users\Karolina\git12\Kamil_C3\src\main\java\servlets\ZlecenieSuccessServlet.java
C:\Users\Karolina\git12\Kamil_C3\src\main\java\domain\Contract.java
C:\Users\Karolina\git12\Kamil_C3\src\main\java\servlets\DzieloServlet.java
C:\Users\Karolina\git12\Kamil_C3\src\main\java\filters\ContractTypeFilter.java
C:\Users\Karolina\git12\Kamil_C3\src\main\java\servlets\PracaServlet.java
C:\Users\Karolina\git12\Kamil_C3\src\main\java\calculator\CountDzieloBrutto.java
C:\Users\Karolina\git12\Kamil_C3\src\main\java\servlets\DzieloSuccessServlet.java
